{
  "project_info": {
    "project_number": "342916464851",
    "firebase_url": "https://lupirka-mobile-app.firebaseio.com",
    "project_id": "lupirka-mobile-app",
    "storage_bucket": "lupirka-mobile-app.appspot.com"
  },
  "client": [
    {
      "client_info": {
        "mobilesdk_app_id": "1:342916464851:android:38c8c0270124221b",
        "android_client_info": {
          "package_name": "com.kriyanesia.lupirka"
        }
      },
      "oauth_client": [
        {
          "client_id": "342916464851-22lsmcg4nt0n1d4eera8ehpgi3b5gglo.apps.googleusercontent.com",
          "client_type": 3
        }
      ],
      "api_key": [
        {
          "current_key": "AIzaSyB2ER3EzpfBL3eoUtm737wig9MHu4NxtXs"
        }
      ],
      "services": {
        "analytics_service": {
          "status": 1
        },
        "appinvite_service": {
          "status": 1,
          "other_platform_oauth_client": []
        },
        "ads_service": {
          "status": 2
        }
      }
    }
  ],
  "configuration_version": "1"
}